"1","/home/aastha/Documents/Workspace/PROJECT/images/9jiFKch2e-Q.png","png","2021-12-30","Dong Cheng","https://unsplash.com/@dongcheng?utm_source=unsample&utm_medium=referral&utm_campaign=api-credit","https://unsplash.com/photos/9jiFKch2e-Q?utm_source=unsample&utm_medium=referral&utm_campaign=api-credit"
"2","/home/aastha/Documents/Workspace/PROJECT/images/t0rFP99AKxg.png","png","2021-12-30","Daniil Komov","https://unsplash.com/@dkomov7?utm_source=unsample&utm_medium=referral&utm_campaign=api-credit","https://unsplash.com/photos/t0rFP99AKxg?utm_source=unsample&utm_medium=referral&utm_campaign=api-credit"
"3","/home/aastha/Documents/Workspace/PROJECT/images/GK8bYhq6ZVc.png","png","2021-12-30","Freddie Addery","https://unsplash.com/@freddieaddery?utm_source=unsample&utm_medium=referral&utm_campaign=api-credit","https://unsplash.com/photos/GK8bYhq6ZVc?utm_source=unsample&utm_medium=referral&utm_campaign=api-credit"
"4","/home/aastha/Documents/Workspace/PROJECT/images/JpkJiEUSaLU.png","png","2021-12-30","Nataliia Rabinovych","https://unsplash.com/@phaybin?utm_source=unsample&utm_medium=referral&utm_campaign=api-credit","https://unsplash.com/photos/JpkJiEUSaLU?utm_source=unsample&utm_medium=referral&utm_campaign=api-credit"
"5","/home/aastha/Documents/Workspace/PROJECT/images/tvlVIEvBLzA.png","png","2021-12-30","Tyrel Johnson","https://unsplash.com/@tyreljohnson?utm_source=unsample&utm_medium=referral&utm_campaign=api-credit","https://unsplash.com/photos/tvlVIEvBLzA?utm_source=unsample&utm_medium=referral&utm_campaign=api-credit"
"6","/home/aastha/Documents/Workspace/PROJECT/images/0gMS4T53WQE.png","png","2021-12-30","Yoko Saito","https://unsplash.com/@yokosaito?utm_source=unsample&utm_medium=referral&utm_campaign=api-credit","https://unsplash.com/photos/0gMS4T53WQE?utm_source=unsample&utm_medium=referral&utm_campaign=api-credit"
"7","/home/aastha/Documents/Workspace/PROJECT/images/U2HYVCxnOf4.png","png","2021-12-30","Universal Eye","https://unsplash.com/@universaleye?utm_source=unsample&utm_medium=referral&utm_campaign=api-credit","https://unsplash.com/photos/U2HYVCxnOf4?utm_source=unsample&utm_medium=referral&utm_campaign=api-credit"
"8","/home/aastha/Documents/Workspace/PROJECT/images/aNdkPGig8TA.png","png","2021-12-30","Sadik Brika","https://unsplash.com/@sadik_brika?utm_source=unsample&utm_medium=referral&utm_campaign=api-credit","https://unsplash.com/photos/aNdkPGig8TA?utm_source=unsample&utm_medium=referral&utm_campaign=api-credit"
"9","/home/aastha/Documents/Workspace/PROJECT/images/XsjifFUSj4M.png","png","2021-12-30","Chris Turgeon","https://unsplash.com/@cturgeon?utm_source=unsample&utm_medium=referral&utm_campaign=api-credit","https://unsplash.com/photos/XsjifFUSj4M?utm_source=unsample&utm_medium=referral&utm_campaign=api-credit"
"10","/home/aastha/Documents/Workspace/PROJECT/images/IyXXXalB1NA.png","png","2021-12-30","Andri Wyss","https://unsplash.com/@andri_wyss?utm_source=unsample&utm_medium=referral&utm_campaign=api-credit","https://unsplash.com/photos/IyXXXalB1NA?utm_source=unsample&utm_medium=referral&utm_campaign=api-credit"
"11","/home/aastha/Documents/Workspace/PROJECT/images/-V_mmeBseuM.png","png","2021-12-30","Loren Cutler","https://unsplash.com/@lorencutler?utm_source=unsample&utm_medium=referral&utm_campaign=api-credit","https://unsplash.com/photos/-V_mmeBseuM?utm_source=unsample&utm_medium=referral&utm_campaign=api-credit"
"12","/home/aastha/Documents/Workspace/PROJECT/images/SVEsxdkc51A.png","png","2021-12-30","Melina Kiefer","https://unsplash.com/@melimascella_?utm_source=unsample&utm_medium=referral&utm_campaign=api-credit","https://unsplash.com/photos/SVEsxdkc51A?utm_source=unsample&utm_medium=referral&utm_campaign=api-credit"
"13","/home/aastha/Documents/Workspace/PROJECT/images/J3bbFeVLqmE.png","png","2021-12-30","Shri .","https://unsplash.com/@thefatdash?utm_source=unsample&utm_medium=referral&utm_campaign=api-credit","https://unsplash.com/photos/J3bbFeVLqmE?utm_source=unsample&utm_medium=referral&utm_campaign=api-credit"
"14","/home/aastha/Documents/Workspace/PROJECT/images/mfPcyEf57Uc.png","png","2021-12-30","Kenta Kikuchi","https://unsplash.com/@kentas_photography?utm_source=unsample&utm_medium=referral&utm_campaign=api-credit","https://unsplash.com/photos/mfPcyEf57Uc?utm_source=unsample&utm_medium=referral&utm_campaign=api-credit"
"15","/home/aastha/Documents/Workspace/PROJECT/images/ZjZalQk1e3A.png","png","2021-12-30","masahiro miyagi","https://unsplash.com/@masamasa3?utm_source=unsample&utm_medium=referral&utm_campaign=api-credit","https://unsplash.com/photos/ZjZalQk1e3A?utm_source=unsample&utm_medium=referral&utm_campaign=api-credit"
"16","/home/aastha/Documents/Workspace/PROJECT/images/5A0bRbxHln0.png","png","2021-12-30","COSMOH LOVE","https://unsplash.com/@cosmoh?utm_source=unsample&utm_medium=referral&utm_campaign=api-credit","https://unsplash.com/photos/5A0bRbxHln0?utm_source=unsample&utm_medium=referral&utm_campaign=api-credit"
"17","/home/aastha/Documents/Workspace/PROJECT/images/_MVejoARtx4.png","png","2021-12-30","Jonas Allert","https://unsplash.com/@visuallert?utm_source=unsample&utm_medium=referral&utm_campaign=api-credit","https://unsplash.com/photos/_MVejoARtx4?utm_source=unsample&utm_medium=referral&utm_campaign=api-credit"
"18","/home/aastha/Documents/Workspace/PROJECT/images/1w5xxNqVQfk.png","png","2021-12-30","refargotohp","https://unsplash.com/@refargotohp?utm_source=unsample&utm_medium=referral&utm_campaign=api-credit","https://unsplash.com/photos/1w5xxNqVQfk?utm_source=unsample&utm_medium=referral&utm_campaign=api-credit"
"19","/home/aastha/Documents/Workspace/PROJECT/images/pEHkamqczMU.png","png","2021-12-30","Colin Lloyd","https://unsplash.com/@onthesearchforpineapples?utm_source=unsample&utm_medium=referral&utm_campaign=api-credit","https://unsplash.com/photos/pEHkamqczMU?utm_source=unsample&utm_medium=referral&utm_campaign=api-credit"
"20","/home/aastha/Documents/Workspace/PROJECT/images/r3BeWUeAR6Y.png","png","2021-12-30","Sasha Zlochevskaya","https://unsplash.com/@sashazlo?utm_source=unsample&utm_medium=referral&utm_campaign=api-credit","https://unsplash.com/photos/r3BeWUeAR6Y?utm_source=unsample&utm_medium=referral&utm_campaign=api-credit"
"21","/home/aastha/Documents/Workspace/PROJECT/images/2yzu6F5XvMg.png","png","2021-12-30","Elijah pilchard","https://unsplash.com/@elijahp?utm_source=unsample&utm_medium=referral&utm_campaign=api-credit","https://unsplash.com/photos/2yzu6F5XvMg?utm_source=unsample&utm_medium=referral&utm_campaign=api-credit"
"22","/home/aastha/Documents/Workspace/PROJECT/images/EbzBRPwDOew.png","png","2021-12-30","Unseen Histories","https://unsplash.com/@unseenhistories?utm_source=unsample&utm_medium=referral&utm_campaign=api-credit","https://unsplash.com/photos/EbzBRPwDOew?utm_source=unsample&utm_medium=referral&utm_campaign=api-credit"
"23","/home/aastha/Documents/Workspace/PROJECT/images/4rDgxdT_4wI.png","png","2021-12-30","Susan Wilkinson","https://unsplash.com/@susan_wilkinson?utm_source=unsample&utm_medium=referral&utm_campaign=api-credit","https://unsplash.com/photos/4rDgxdT_4wI?utm_source=unsample&utm_medium=referral&utm_campaign=api-credit"
"24","/home/aastha/Documents/Workspace/PROJECT/images/9M7spSQ3kJ0.png","png","2021-12-30","Victor Aldabalde","https://unsplash.com/@victoraldabalde?utm_source=unsample&utm_medium=referral&utm_campaign=api-credit","https://unsplash.com/photos/9M7spSQ3kJ0?utm_source=unsample&utm_medium=referral&utm_campaign=api-credit"
"25","/home/aastha/Documents/Workspace/PROJECT/images/q6DfNdkRdyg.png","png","2021-12-30","Šimom Caban","https://unsplash.com/@simi_prep?utm_source=unsample&utm_medium=referral&utm_campaign=api-credit","https://unsplash.com/photos/q6DfNdkRdyg?utm_source=unsample&utm_medium=referral&utm_campaign=api-credit"
"26","/home/aastha/Documents/Workspace/PROJECT/images/S4u2_o3i3Ws.png","png","2021-12-30","Anthony Cantin","https://unsplash.com/@arizonanthony?utm_source=unsample&utm_medium=referral&utm_campaign=api-credit","https://unsplash.com/photos/S4u2_o3i3Ws?utm_source=unsample&utm_medium=referral&utm_campaign=api-credit"
"27","/home/aastha/Documents/Workspace/PROJECT/images/XI0KcgMhdnY.png","png","2021-12-30","Aron Yigin","https://unsplash.com/@aronyigin?utm_source=unsample&utm_medium=referral&utm_campaign=api-credit","https://unsplash.com/photos/XI0KcgMhdnY?utm_source=unsample&utm_medium=referral&utm_campaign=api-credit"
"28","/home/aastha/Documents/Workspace/PROJECT/images/cGWQvhWKeuE.png","png","2021-12-30","Tamas Tuzes-Katai","https://unsplash.com/@tamas_tuzeskatai?utm_source=unsample&utm_medium=referral&utm_campaign=api-credit","https://unsplash.com/photos/cGWQvhWKeuE?utm_source=unsample&utm_medium=referral&utm_campaign=api-credit"
"29","/home/aastha/Documents/Workspace/PROJECT/images/zNo5tTsnLPo.png","png","2021-12-30","eberhard grossgasteiger","https://unsplash.com/@eberhardgross?utm_source=unsample&utm_medium=referral&utm_campaign=api-credit","https://unsplash.com/photos/zNo5tTsnLPo?utm_source=unsample&utm_medium=referral&utm_campaign=api-credit"
"30","/home/aastha/Documents/Workspace/PROJECT/images/kzCvplA1WUE.png","png","2021-12-30","Ingmar","https://unsplash.com/@ingmarr?utm_source=unsample&utm_medium=referral&utm_campaign=api-credit","https://unsplash.com/photos/kzCvplA1WUE?utm_source=unsample&utm_medium=referral&utm_campaign=api-credit"
